[gd_resource type="Resource" script_class="dabDab" load_steps=5 format=3 uid="uid://d288db510igku"]

[ext_resource type="Resource" uid="uid://bwlkx70jnnpth" path="res://addons/dabber/docs/demo/resources/dabSettingsRotation_fe6127f52a.tres" id="1_eepeg"]
[ext_resource type="Resource" uid="uid://djakirp4pi3pa" path="res://addons/dabber/docs/demo/resources/dabPathFilter_21e03971d7.tres" id="1_elggi"]
[ext_resource type="Resource" uid="uid://c1gityj042ywd" path="res://addons/dabber/docs/demo/resources/dabSettingsScale_1fe1561023.tres" id="2_44agl"]
[ext_resource type="Script" path="res://addons/dabber/src/dabs/dab.gd" id="2_uutg2"]

[resource]
script = ExtResource("2_uutg2")
name = "DabWithMany"
count = 1
dab_settings_rotation = ExtResource("1_eepeg")
dab_settings_scale = ExtResource("2_44agl")
mesh_sources = Array[Resource]([ExtResource("1_elggi")])
orient_wobble = 0.0
orient_normal = true
orient_to_vector = false
orient_vector = Vector3(0, 1, 0)
