[gd_resource type="Gradient" format=3 uid="uid://cikn3740g42wu"]

[resource]
interpolation_mode = 1
offsets = PackedFloat32Array(0, 0.213953, 0.693023)
colors = PackedColorArray(0.449219, 0.449219, 0.449219, 1, 0, 0, 0, 1, 0.446983, 0.446983, 0.446983, 1)
