[gd_resource type="LabelSettings" script_class="rwtexTextSettings" load_steps=3 format=3 uid="uid://ccqciq75njh8y"]

[ext_resource type="Script" path="res://addons/resource_wrangler/src/nodes/image_texture/memory/text_settings.gd" id="1_7fmw0"]

[sub_resource type="SystemFont" id="SystemFont_anv3n"]

[resource]
font = SubResource("SystemFont_anv3n")
font_size = 32
script = ExtResource("1_7fmw0")
text = "Dabber!"
no_fill = false
adjust_up_down = 0.0
