[gd_resource type="Resource" script_class="dabSettingsRotation" load_steps=2 format=3 uid="uid://dxioa74wreev"]

[ext_resource type="Script" path="res://addons/dabber/src/dabs/settings/dab_settings_rotation.gd" id="1_06t3r"]

[resource]
script = ExtResource("1_06t3r")
random_axes = false
X_axis = false
Y_axis = false
Z_axis = false
random_degrees = 0.0
name = ""
