[gd_scene load_steps=4 format=3 uid="uid://c432kvip88tb5"]

[sub_resource type="TorusMesh" id="TorusMesh_haqjd"]

[sub_resource type="StandardMaterial3D" id="StandardMaterial3D_0pgdh"]
albedo_color = Color(0.364706, 0.101961, 1, 1)

[sub_resource type="PrismMesh" id="PrismMesh_ibfwf"]
material = SubResource("StandardMaterial3D_0pgdh")

[node name="donut" type="Node3D"]

[node name="B" type="MeshInstance3D" parent="."]
mesh = SubResource("TorusMesh_haqjd")
skeleton = NodePath("../A")

[node name="A" type="MeshInstance3D" parent="."]
mesh = SubResource("PrismMesh_ibfwf")
