[gd_scene load_steps=3 format=3 uid="uid://j1rn1wgd5e8x"]

[ext_resource type="Script" path="res://testcode/server_areas.gd" id="1_mwh56"]

[sub_resource type="BoxMesh" id="BoxMesh_jr45u"]

[node name="Node3D" type="Node3D"]

[node name="here" type="Node3D" parent="."]
transform = Transform3D(1, 0, 0, 0, 1, 0, 0, 0, 1, 0, 1.01994, 0)
script = ExtResource("1_mwh56")

[node name="one" type="MeshInstance3D" parent="here"]
transform = Transform3D(1, 0, 0, 0, 1, 0, 0, 0, 1, -0.984081, -0.518283, -0.97096)
mesh = SubResource("BoxMesh_jr45u")

[node name="two" type="MeshInstance3D" parent="here"]
transform = Transform3D(1, 0, 0, 0, 1, 0, 0, 0, 1, 0.262421, -0.518283, -0.97752)
mesh = SubResource("BoxMesh_jr45u")

[node name="three" type="MeshInstance3D" parent="here"]
transform = Transform3D(1, 0, 0, 0, 1, 0, 0, 0, 1, -0.00656104, -0.518283, 0.505162)
mesh = SubResource("BoxMesh_jr45u")

[node name="overlapper" type="MeshInstance3D" parent="here"]
transform = Transform3D(1, 0, 0, 0, 1, 0, 0, 0, 1, -0.380512, -0.518283, -0.301785)
mesh = SubResource("BoxMesh_jr45u")
