[gd_scene load_steps=2 format=3 uid="uid://eorvmxy7hj1y"]

[ext_resource type="Script" path="res://testcode/test.gd" id="1_upphv"]

[node name="Node2D" type="Node2D"]
script = ExtResource("1_upphv")
foo = "eee"
